{
  "content": [
    {
      "userName": "로스리더",
      "mileage": 999940000,
      "orderDate": "2022-03-22",
      "orderNumber": 202232291158,
      "briefAddress": "구래동",
      "storeName": "카페폰더",
      "couponContent": "스콘",
      "priceOfCoupon": 2000
    },
    {
      "userName": "로스리더",
      "mileage": 999940000,
      "orderDate": "2022-03-22",
      "orderNumber": 20223229193,
      "briefAddress": "구래동",
      "storeName": "카페폰더",
      "couponContent": "스콘",
      "priceOfCoupon": 2000
    },
    {
      "userName": "로스리더",
      "mileage": 999940000,
      "orderDate": "2022-03-22",
      "orderNumber": 202232291920,
      "briefAddress": "구래동",
      "storeName": "카페폰더",
      "couponContent": "스콘",
      "priceOfCoupon": 2000
    },
    {
      "userName": "로스리더",
      "mileage": 999940000,
      "orderDate": "2022-03-22",
      "orderNumber": 202232291937,
      "briefAddress": "구래동",
      "storeName": "카페폰더",
      "couponContent": "스콘",
      "priceOfCoupon": 2000
    },
    {
      "userName": "로스리더",
      "mileage": 999940000,
      "orderDate": "2022-03-22",
      "orderNumber": 202232291947,
      "briefAddress": "구래동",
      "storeName": "카페폰더",
      "couponContent": "스콘",
      "priceOfCoupon": 2000
    },
    {
      "userName": "로스리더",
      "mileage": 999940000,
      "orderDate": "2022-03-22",
      "orderNumber": 202232292048,
      "briefAddress": "구래동",
      "storeName": "카페폰더",
      "couponContent": "스콘",
      "priceOfCoupon": 2000
    },
    {
      "userName": "로스리더",
      "mileage": 999940000,
      "orderDate": "2022-03-22",
      "orderNumber": 202232292059,
      "briefAddress": "구래동",
      "storeName": "카페폰더",
      "couponContent": "스콘",
      "priceOfCoupon": 2000
    },
    {
      "userName": "로스리더",
      "mileage": 999940000,
      "orderDate": "2022-03-22",
      "orderNumber": 202232292110,
      "briefAddress": "구래동",
      "storeName": "카페폰더",
      "couponContent": "스콘",
      "priceOfCoupon": 2000
    },
    {
      "userName": "로스리더",
      "mileage": 999940000,
      "orderDate": "2022-03-22",
      "orderNumber": 202232292146,
      "briefAddress": "구래동",
      "storeName": "카페폰더",
      "couponContent": "스콘",
      "priceOfCoupon": 2000
    },
    {
      "userName": "로스리더",
      "mileage": 999940000,
      "orderDate": "2022-03-22",
      "orderNumber": 20223229228,
      "briefAddress": "구래동",
      "storeName": "카페폰더",
      "couponContent": "스콘",
      "priceOfCoupon": 2000
    },
    {
      "userName": "로스리더",
      "mileage": 999940000,
      "orderDate": "2022-03-22",
      "orderNumber": 202232292344,
      "briefAddress": "구래동",
      "storeName": "카페폰더",
      "couponContent": "스콘",
      "priceOfCoupon": 2000
    },
    {
      "userName": "로스리더",
      "mileage": 999940000,
      "orderDate": "2022-03-22",
      "orderNumber": 20223229248,
      "briefAddress": "구래동",
      "storeName": "카페폰더",
      "couponContent": "스콘",
      "priceOfCoupon": 2000
    },
    {
      "userName": "로스리더",
      "mileage": 999940000,
      "orderDate": "2022-03-22",
      "orderNumber": 202232292627,
      "briefAddress": "구래동",
      "storeName": "카페폰더",
      "couponContent": "스콘",
      "priceOfCoupon": 2000
    },
    {
      "userName": "로스리더",
      "mileage": 999940000,
      "orderDate": "2022-03-22",
      "orderNumber": 202232292639,
      "briefAddress": "구래동",
      "storeName": "카페폰더",
      "couponContent": "스콘",
      "priceOfCoupon": 2000
    },
    {
      "userName": "로스리더",
      "mileage": 999940000,
      "orderDate": "2022-03-22",
      "orderNumber": 202232292650,
      "briefAddress": "구래동",
      "storeName": "카페폰더",
      "couponContent": "스콘",
      "priceOfCoupon": 2000
    },
    {
      "userName": "로스리더",
      "mileage": 999940000,
      "orderDate": "2022-03-22",
      "orderNumber": 20223229276,
      "briefAddress": "구래동",
      "storeName": "카페폰더",
      "couponContent": "스콘",
      "priceOfCoupon": 2000
    },
    {
      "userName": "로스리더",
      "mileage": 999940000,
      "orderDate": "2022-03-22",
      "orderNumber": 202232292715,
      "briefAddress": "구래동",
      "storeName": "카페폰더",
      "couponContent": "스콘",
      "priceOfCoupon": 2000
    },
    {
      "userName": "로스리더",
      "mileage": 999940000,
      "orderDate": "2022-03-22",
      "orderNumber": 202232292822,
      "briefAddress": "구래동",
      "storeName": "카페폰더",
      "couponContent": "스콘",
      "priceOfCoupon": 2000
    },
    {
      "userName": "로스리더",
      "mileage": 999940000,
      "orderDate": "2022-03-22",
      "orderNumber": 202232292828,
      "briefAddress": "구래동",
      "storeName": "카페폰더",
      "couponContent": "스콘",
      "priceOfCoupon": 2000
    },
    {
      "userName": "로스리더",
      "mileage": 999940000,
      "orderDate": "2022-03-22",
      "orderNumber": 202232292846,
      "briefAddress": "구래동",
      "storeName": "카페폰더",
      "couponContent": "스콘",
      "priceOfCoupon": 2000
    }
  ],
  "pageable": {
    "sort": {
      "empty": true,
      "sorted": false,
      "unsorted": true
    },
    "offset": 0,
    "pageNumber": 0,
    "pageSize": 20,
    "paged": true,
    "unpaged": false
  },
  "last": false,
  "totalPages": 2,
  "totalElements": 30,
  "size": 20,
  "number": 0,
  "sort": {
    "empty": true,
    "sorted": false,
    "unsorted": true
  },
  "first": true,
  "numberOfElements": 20,
  "empty": false
}
